hu\dbalapu\projekt\Konyvesbolt\view\table\KiadoTableController.class
hu\dbalapu\projekt\Konyvesbolt\controller\KiadoController.class
hu\dbalapu\projekt\Konyvesbolt\view\table\FelhasznalokTableController.class
hu\dbalapu\projekt\Konyvesbolt\controller\ZeneController.class
hu\dbalapu\projekt\Konyvesbolt\dao\imp\NyelvekDAOImp.class
hu\dbalapu\projekt\Konyvesbolt\model\Nyelvek.class
hu\dbalapu\projekt\Konyvesbolt\view\dialog\MufajokDialogController.class
hu\dbalapu\projekt\Konyvesbolt\view\table\ZeneTableController.class
hu\dbalapu\projekt\Konyvesbolt\controller\NyelvekController.class
hu\dbalapu\projekt\Konyvesbolt\view\dialog\NyelvekDialogController.class
hu\dbalapu\projekt\Konyvesbolt\view\table\AruhazakTableController.class
hu\dbalapu\projekt\Konyvesbolt\dao\imp\RendelesekDAOImp.class
hu\dbalapu\projekt\Konyvesbolt\view\table\NyilvantartasTableController.class
hu\dbalapu\projekt\Konyvesbolt\dao\imp\KiadoDAOImp.class
hu\dbalapu\projekt\Konyvesbolt\model\Rendelestetelek.class
hu\dbalapu\projekt\Konyvesbolt\view\table\NyelvekTableController.class
hu\dbalapu\projekt\Konyvesbolt\view\table\FilmTableController.class
hu\dbalapu\projekt\Konyvesbolt\dao\imp\KonyvekDAOImp.class
hu\dbalapu\projekt\Konyvesbolt\model\Konyvek.class
hu\dbalapu\projekt\Konyvesbolt\dao\TorzsvasarlokDAO.class
hu\dbalapu\projekt\Konyvesbolt\controller\NyilvantartasController.class
hu\dbalapu\projekt\Konyvesbolt\model\Nyilvantartas.class
hu\dbalapu\projekt\Konyvesbolt\model\Film.class
hu\dbalapu\projekt\Konyvesbolt\dao\EkonyvDAO.class
hu\dbalapu\projekt\Konyvesbolt\view\LoginController.class
hu\dbalapu\projekt\Konyvesbolt\dao\KiadoDAO.class
hu\dbalapu\projekt\Konyvesbolt\dao\MufajokDAO.class
hu\dbalapu\projekt\Konyvesbolt\model\Szerzo.class
hu\dbalapu\projekt\Konyvesbolt\controller\FilmController.class
hu\dbalapu\projekt\Konyvesbolt\dao\imp\ZeneDAOImp.class
hu\dbalapu\projekt\Konyvesbolt\dao\KonyvekDAO.class
hu\dbalapu\projekt\Konyvesbolt\dao\imp\FilmDAOImp.class
hu\dbalapu\projekt\Konyvesbolt\controller\AruhazakController.class
hu\dbalapu\projekt\Konyvesbolt\model\Rendelesek.class
hu\dbalapu\projekt\Konyvesbolt\view\table\RendelesekTableController.class
hu\dbalapu\projekt\Konyvesbolt\dao\imp\FelhasznalokDAOImp.class
hu\dbalapu\projekt\Konyvesbolt\dao\imp\NyilvantartasDAOImp.class
hu\dbalapu\projekt\Konyvesbolt\utils\Alerts$1.class
hu\dbalapu\projekt\Konyvesbolt\view\table\ArumufajTableController.class
hu\dbalapu\projekt\Konyvesbolt\dao\RendelesekDAO.class
hu\dbalapu\projekt\Konyvesbolt\controller\MufajokController.class
hu\dbalapu\projekt\Konyvesbolt\controller\RendelesekController.class
hu\dbalapu\projekt\Konyvesbolt\utils\Alerts.class
hu\dbalapu\projekt\Konyvesbolt\controller\SzerzoController.class
hu\dbalapu\projekt\Konyvesbolt\dao\imp\ArukDAOImp.class
hu\dbalapu\projekt\Konyvesbolt\dao\imp\SzerzoDAOImp.class
hu\dbalapu\projekt\Konyvesbolt\dao\imp\EkonyvDAOImp.class
hu\dbalapu\projekt\Konyvesbolt\dao\ZeneDAO.class
hu\dbalapu\projekt\Konyvesbolt\dao\AruhazakDAO.class
hu\dbalapu\projekt\Konyvesbolt\view\table\MufajokTableController.class
hu\dbalapu\projekt\Konyvesbolt\dao\ArumufajDAO.class
hu\dbalapu\projekt\Konyvesbolt\view\table\TorzsvasarlokTableController.class
hu\dbalapu\projekt\Konyvesbolt\view\dialog\KonyvekDialogController.class
hu\dbalapu\projekt\Konyvesbolt\model\Kiado.class
hu\dbalapu\projekt\Konyvesbolt\model\Mufajok.class
hu\dbalapu\projekt\Konyvesbolt\dao\SzerzoDAO.class
hu\dbalapu\projekt\Konyvesbolt\controller\EkonyvController.class
hu\dbalapu\projekt\Konyvesbolt\dao\imp\TorzsvasarlokDAOImp.class
hu\dbalapu\projekt\Konyvesbolt\dao\imp\MufajokDAOImp.class
hu\dbalapu\projekt\Konyvesbolt\dao\RendelestetelekDAO.class
hu\dbalapu\projekt\Konyvesbolt\controller\RendelestetelekController.class
hu\dbalapu\projekt\Konyvesbolt\view\dialog\AruhazakDialogController.class
hu\dbalapu\projekt\Konyvesbolt\dao\imp\RendelestetelekDAOImp.class
hu\dbalapu\projekt\Konyvesbolt\dao\NyilvantartasDAO.class
hu\dbalapu\projekt\Konyvesbolt\model\Arumufaj.class
hu\dbalapu\projekt\Konyvesbolt\view\table\RendelestetelekTableController.class
hu\dbalapu\projekt\Konyvesbolt\view\dialog\KiadoDialogController.class
hu\dbalapu\projekt\Konyvesbolt\dao\FilmDAO.class
hu\dbalapu\projekt\Konyvesbolt\model\Aruk.class
hu\dbalapu\projekt\Konyvesbolt\dao\imp\ArumufajDAOImp.class
hu\dbalapu\projekt\Konyvesbolt\dao\NyelvekDAO.class
hu\dbalapu\projekt\Konyvesbolt\view\dialog\EkonyvDialogController.class
hu\dbalapu\projekt\Konyvesbolt\utils\Layout.class
hu\dbalapu\projekt\Konyvesbolt\controller\KonyvekController.class
hu\dbalapu\projekt\Konyvesbolt\controller\TorzsvasarlokController.class
hu\dbalapu\projekt\Konyvesbolt\view\dialog\SzerzoDialogController.class
hu\dbalapu\projekt\Konyvesbolt\model\Felhasznalok.class
hu\dbalapu\projekt\Konyvesbolt\dao\imp\AruhazakDAOImp.class
hu\dbalapu\projekt\Konyvesbolt\view\dialog\RendelestetelekDialogController.class
hu\dbalapu\projekt\Konyvesbolt\dao\FelhasznalokDAO.class
hu\dbalapu\projekt\Konyvesbolt\Main.class
hu\dbalapu\projekt\Konyvesbolt\view\dialog\RendelesekDialogController.class
hu\dbalapu\projekt\Konyvesbolt\model\Torzsvasarlok.class
hu\dbalapu\projekt\Konyvesbolt\view\table\SzerzoTableController.class
hu\dbalapu\projekt\Konyvesbolt\model\Aruhazak.class
hu\dbalapu\projekt\Konyvesbolt\view\dialog\FilmDialogController.class
hu\dbalapu\projekt\Konyvesbolt\view\table\EkonyvTableController.class
hu\dbalapu\projekt\Konyvesbolt\view\dialog\ArumufajDialogController.class
hu\dbalapu\projekt\Konyvesbolt\view\dialog\NyilvantartasDialogController.class
hu\dbalapu\projekt\Konyvesbolt\view\dialog\TorzsvasarlokDialogController.class
hu\dbalapu\projekt\Konyvesbolt\model\Zene.class
hu\dbalapu\projekt\Konyvesbolt\utils\Settings.class
hu\dbalapu\projekt\Konyvesbolt\controller\FelhasznalokController.class
hu\dbalapu\projekt\Konyvesbolt\view\dialog\FelhasznalokDialogController.class
hu\dbalapu\projekt\Konyvesbolt\utils\PropertyConverter.class
hu\dbalapu\projekt\Konyvesbolt\dao\ArukDAO.class
hu\dbalapu\projekt\Konyvesbolt\view\table\KonyvekTableController.class
hu\dbalapu\projekt\Konyvesbolt\controller\ArukController.class
hu\dbalapu\projekt\Konyvesbolt\App.class
hu\dbalapu\projekt\Konyvesbolt\view\dialog\ArukDialogController.class
hu\dbalapu\projekt\Konyvesbolt\controller\ArumufajController.class
hu\dbalapu\projekt\Konyvesbolt\model\Ekonyv.class
hu\dbalapu\projekt\Konyvesbolt\view\table\ArukTableController.class
hu\dbalapu\projekt\Konyvesbolt\view\dialog\ZeneDialogController.class
